<?xml version="1.0" encoding="UTF-8"?>
<CustomTab xmlns="http://soap.sforce.com/2006/04/metadata">
    <customObject>true</customObject>
    <description>PaymentConnect application settings.</description>
    <icon>PaymentConnect/Settings_Icon.png</icon>
    <mobileReady>false</mobileReady>
    <motif>Custom299: TV Widescreen</motif>
    <splashPageLink>PaymentConnect_Splash_Page</splashPageLink>
</CustomTab>
