<?xml version="1.0" encoding="UTF-8"?>
<CustomTab xmlns="http://soap.sforce.com/2006/04/metadata">
    <icon>FinancialForceDocuments/FinancialForceCurrenciesIcon.png</icon>
    <label>Cash Matching</label>
    <mobileReady>false</mobileReady>
    <motif>Custom123: TV Widescreen</motif>
    <page>codacashmatching</page>
</CustomTab>
