<?xml version="1.0" encoding="UTF-8"?>
<CustomTab xmlns="http://soap.sforce.com/2006/04/metadata">
    <customObject>true</customObject>
    <description>telco billing table</description>
    <mobileReady>false</mobileReady>
    <motif>Custom90: Scales</motif>
</CustomTab>
