<?xml version="1.0" encoding="UTF-8"?>
<CustomTab xmlns="http://soap.sforce.com/2006/04/metadata">
    <label>Create and Post Documents</label>
    <mobileReady>false</mobileReady>
    <motif>Custom29: PDA</motif>
    <page>ffps_bmatching__CreateAndPostDocuments</page>
</CustomTab>
