<?xml version="1.0" encoding="UTF-8"?>
<CustomTab xmlns="http://soap.sforce.com/2006/04/metadata">
    <description>Visualforce custom Tab to pull all Packages and Products related information from Fulfillment Vendor(CL)</description>
    <label>Create Talus Information</label>
    <mobileReady>false</mobileReady>
    <motif>Custom5: Leaf</motif>
    <page>InvokeTalusPackages</page>
</CustomTab>
