<?xml version="1.0" encoding="UTF-8"?>
<CustomTab xmlns="http://soap.sforce.com/2006/04/metadata">
    <description>Tab to access the Galley Report Visualforce page.</description>
    <label>Galley Report_Old</label>
    <mobileReady>false</mobileReady>
    <motif>Custom15: People</motif>
    <page>GalleyReport</page>
</CustomTab>
