<?xml version="1.0" encoding="UTF-8"?>
<CustomTab xmlns="http://soap.sforce.com/2006/04/metadata">
    <description>This tab is to access the VF page where you can run manually run the Letter Renewal Process.</description>
    <label>Letter Renewal Manual Batch</label>
    <mobileReady>false</mobileReady>
    <motif>Custom64: Compass</motif>
    <page>LetterRenewalReportManualSchedule</page>
</CustomTab>
