<?xml version="1.0" encoding="UTF-8"?>
<CustomTab xmlns="http://soap.sforce.com/2006/04/metadata">
    <label>PIA Manual Review</label>
    <mobileReady>false</mobileReady>
    <motif>Custom78: Map</motif>
    <page>Vertex_Berry__BSure_ManualReviewAnalystApprove</page>
</CustomTab>
