<?xml version="1.0" encoding="UTF-8"?>
<CustomTab xmlns="http://soap.sforce.com/2006/04/metadata">
    <description>This tab is to access the VF page where you can manually run the Service Order Batch Process. Daily Service Order Data Batch</description>
    <label>SO Daily Batch</label>
    <mobileReady>false</mobileReady>
    <motif>Custom67: Gears</motif>
    <page>ServiceOrderInsertManualSchedule</page>
</CustomTab>
