<?xml version="1.0" encoding="UTF-8"?>
<CustomTab xmlns="http://soap.sforce.com/2006/04/metadata">
    <description>Annual, EAS and CATs data &gt; File Load Coordinator Page, ABD Pending Review and Annual Batch Process

https://berry--bqa1--c.cs9.visual.force.com/apex/SOBocBatchOptionsPage</description>
    <label>SO Annual Batch</label>
    <mobileReady>false</mobileReady>
    <motif>Custom67: Gears</motif>
    <page>SOBocBatchOptionsPage</page>
</CustomTab>
